<svg xmlns="http://www.w3.org/2000/svg" viewBox="0 0 463 463">
  <path fill="#a3a9af" d="M431.5 76h-400C14.131 76 0 90.131 0 107.5v224c0 14.785 10.241 27.216 24 30.591v9.409c0 8.547 6.953 15.5 15.5 15.5h16c8.547 0 15.5-6.953 15.5-15.5V363h321v8.5c0 8.547 6.953 15.5 15.5 15.5h16c8.547 0 15.5-6.953 15.5-15.5v-9.409c13.759-3.374 24-15.806 24-30.591v-224c0-17.369-14.131-31.5-31.5-31.5zM56 371.5a.5.5 0 0 1-.5.5h-16a.5.5 0 0 1-.5-.5V363h17v8.5zM31.5 348c-9.098 0-16.5-7.401-16.5-16.5v-224C15 98.401 22.402 91 31.5 91H352v256.5c0 .169.014.334.025.5H31.5zM424 371.5a.5.5 0 0 1-.5.5h-16a.5.5 0 0 1-.5-.5V363h17v8.5zm24-40c0 9.099-7.402 16.5-16.5 16.5h-64.525c.011-.166.025-.331.025-.5V91h64.5c9.098 0 16.5 7.401 16.5 16.5v224z"/>
  <path fill="#a3a9af" d="M327.5 108h-288a7.5 7.5 0 0 0-7.5 7.5v208a7.5 7.5 0 0 0 7.5 7.5h288a7.5 7.5 0 0 0 7.5-7.5v-208a7.5 7.5 0 0 0-7.5-7.5zM320 316H47V123h273v193zM415.5 124h-16c-8.547 0-15.5 6.953-15.5 15.5v16c0 8.547 6.953 15.5 15.5 15.5h16c8.547 0 15.5-6.953 15.5-15.5v-16c0-8.547-6.953-15.5-15.5-15.5zm.5 31.5a.5.5 0 0 1-.5.5h-16a.5.5 0 0 1-.5-.5v-16a.5.5 0 0 1 .5-.5h16a.5.5 0 0 1 .5.5v16zM423.5 188h-32c-4.142 0-7.5 3.357-7.5 7.5s3.358 7.5 7.5 7.5h32c4.142 0 7.5-3.357 7.5-7.5s-3.358-7.5-7.5-7.5zM423.5 252h-32c-4.142 0-7.5 3.357-7.5 7.5s3.358 7.5 7.5 7.5h32c4.142 0 7.5-3.357 7.5-7.5s-3.358-7.5-7.5-7.5zM423.5 220h-32c-4.142 0-7.5 3.357-7.5 7.5s3.358 7.5 7.5 7.5h32c4.142 0 7.5-3.357 7.5-7.5s-3.358-7.5-7.5-7.5z"/>
  <path fill="#a3a9af" d="M168 240.866c0 13.16 5.269 20.18 9.502 25.819 3.772 5.026 6.498 8.658 6.498 16.814a7.5 7.5 0 0 0 7.5 7.5 7.5 7.5 0 0 0 7.5-7.5c0-13.159-5.269-20.179-9.501-25.818-3.773-5.026-6.499-8.658-6.499-16.815 0-8.168 2.727-11.804 6.5-16.835 4.232-5.644 9.5-12.668 9.5-25.836 0-13.173-5.267-20.2-9.498-25.848-3.775-5.036-6.502-8.676-6.502-16.853a7.5 7.5 0 0 0-7.5-7.5 7.5 7.5 0 0 0-7.5 7.5c0 13.174 5.267 20.201 9.499 25.849 3.774 5.036 6.501 8.676 6.501 16.852 0 8.168-2.727 11.804-6.5 16.836-4.232 5.645-9.5 12.668-9.5 25.835zM208.484 248.358a7.496 7.496 0 0 0 6.036-3.046c5.37-7.161 16.48-22.023 16.48-47.116 0-10.194-1.838-19.807-5.463-28.568a7.5 7.5 0 0 0-13.861 5.733c2.869 6.935 4.324 14.617 4.324 22.834 0 20.041-8.375 31.307-13.438 38.059a7.47 7.47 0 0 0-1.578 4.604 7.5 7.5 0 0 0 7.5 7.5zM148.324 273.877a7.5 7.5 0 0 0 6.935-10.35c-2.826-6.884-4.259-14.509-4.259-22.661 0-20.137 8.458-31.415 13.512-38.153.138-.184.267-.374.387-.569 1.484-2.41 1.476-5.506-.008-7.916a7.5 7.5 0 0 0-12.825.079c-5.507 7.361-16.066 22.1-16.066 46.559 0 10.116 1.811 19.657 5.383 28.358a7.502 7.502 0 0 0 6.941 4.653z"/>
</svg>
